60416 816780 509
628039 778108 504
941393 290122 525
540622 580747 452
856000 130547 525
888293 365995 525
498167 923978 525
276013 288116 389
253102 227102 443
341482 963862 525
533820 468331 470
361348 534055 470
998521 342568 525
832399 278209 509
915363 360064 525
931853 220835 525
20047 239412 443
241310 931402 525
483247 286501 449
290270 321743 384
117373 410620 449
801163 262706 509
111234 596805 470
196733 292167 443
127018 953592 525
513695 173900 470
299224 434957 449
616683 740986 509
215893 679230 509
431189 279894 449
11656 204754 383
747905 610216 509
838843 810090 525
794599 906527 525
576248 345060 470
418589 21457 449
792257 534409 509
26381 925344 525
278209 298575 389
21996 239845 443
834332 506008 509
531335 62803 470
805349 762772 468
220624 991777 525
784635 723669 468
197111 960545 525
615717 335345 470
235016 997581 525
893335 170981 525
90769 12243 351
620292 17163 470
845475 823275 525
492630 954060 525
774004 967400 525
273124 235441 407
343423 549636 470
429534 646688 509
54680 140816 354
492215 276983 449
468281 998259 525
313464 222523 443
175954 368279 443
571021 222044 470
125522 735188 509
637228 24155 509
323616 115552 443
296990 45334 443
226319 278681 443
110676 674970 509
667713 78207 509
250487 561233 470
379500 290354 441
225864 475898 449
158925 88150 383
176854 898901 525
262614 645658 509
170335 597826 470
646111 35536 509
82253 730856 509
859492 647667 525
626219 804123 509
77374 514607 470
598981 252285 470
451644 471331 444
836437 533624 509
518336 341107 470
841304 783082 525
646461 172362 509
963933 913310 507
522269 216202 470
887687 867734 445
365206 886009 525
744307 464677 509
620000 363414 470
751327 162935 509
462226 59347 449
156811 896592 525
901299 322035 525
485474 420434 444
572329 748430 509
299682 392852 441
78467 943947 525
676931 249412 509
864066 250336 525
813839 398896 509
795322 154729 509
924512 913769 445
43926 995645 525
872522 801748 525
411644 86050 449
658177 820651 504
943759 518716 525
471216 321081 449
296257 298857 371
539930 895844 525
98310 306891 443
805073 250803 509
908251 148806 525
171685 766754 509
145583 370049 443
677634 138881 509
659081 63445 509
173643 864970 525
245109 651306 509
851056 383977 525
289534 995503 525
385039 425470 449
107008 870424 525
924103 70412 525
305215 658978 509
602569 56568 470
949576 245868 525
654410 558940 509
607294 73795 470
551065 934795 525
15727 868752 525
720024 404493 509
212966 999677 525
828121 947669 525
161003 465000 449
700924 750441 504
87362 49950 351
570683 721782 509
732906 488793 509
14548 530579 470
979055 271104 525
871514 743559 525
872375 825531 525
31168 829998 509
515110 198267 470
880180 899030 445
167845 308709 443
288393 966975 525
796330 535036 509
644802 750494 504
938586 369063 525
53015 599729 470
628679 760807 504
315708 7548 443
498048 366770 449
364013 10803 443
874930 367664 525
529894 475473 470
977346 435993 525
387733 740924 509
823565 991023 525
534828 42826 470
739999 468486 509
156341 298181 443
669072 129822 509
177206 523961 470
419162 126856 449
613244 837606 509
970241 566524 525
380753 352777 423
379691 846843 525
642734 230988 509
461115 316747 449
790310 573781 509
784437 177905 509
258258 842572 525
711441 359633 509
502264 817459 509
193621 434422 449
684176 343546 509
402603 881060 525
822027 574028 509
242965 137255 443
324694 619736 470
546383 822538 509
814256 507072 509
230569 356049 443
285078 560585 470
816942 790115 468
306488 291344 371
861395 293480 525
856022 633146 525
202715 40222 383
403414 290992 441
56454 10463 340
993755 229580 525
558753 33019 470
760298 558514 509
439591 78202 449
299939 230252 443
269212 295091 407
192928 343877 443
844129 891618 445
940878 689764 525
703963 197331 509
238431 695400 509
500192 748807 509
659495 315110 509
341177 974998 525
636523 287954 509
861658 361721 525
396038 165285 443
94046 464168 449
86540 826405 509
64405 91484 351
222472 597802 470
326040 917288 525
886727 594179 525
477817 427181 444
626684 789639 504
