567924 41729
248192 843184
366777 77459
993924 414696
421679 72305
411246 484336
509718 237527
114276 682800
88843 271670
125603 444606
875273 762213
848920 529946
453981 812399
805110 983344
255891 625573
597177 831995
131362 434459
129561 605293
147716 426089
982758 122269
453459 318284
448260 156514
920632 347474
901767 690042
710991 582906
10982 487884
140661 185658
697971 205002
343062 620458
33296 432253
164566 79973
139710 779030
484418 900840
497984 399501
685821 666232
231833 681070
541897 790791
99488 672704
57532 655564
945387 579268
814455 237875
503810 550230
822059 421205
416140 896714
863251 932691
135952 423353
873309 446603
693762 695935
905293 610445
853011 645569
349736 748789
474438 542534
754069 643740
131330 17723
231689 56019
603447 122612
280338 446426
429053 234649
572772 923924
273950 935315
967798 783571
80493 243780
671200 40239
287445 21573
611080 210684
637264 285152
400306 467700
620829 922179
806781 216419
657363 509256
488246 212007
772802 240824
394321 564464
882389 302162
916741 557606
357386 45352
302959 226312
685130 582794
791364 87347
668413 749526
982450 238054
365745 75662
720375 519139
25536 385678
750332 137727
388030 275235
8882 214736
766449 904089
3679 186896
3844 943516
86549 927944
645511 207526
716754 969658
538411 219072
100708 361531
925574 472044
893700 59197
652946 461308
288906 469108
985721 643237
337547 623858
80680 81592
455996 972474
623156 234775
835514 412383
387049 640256
240428 626639
41310 368204
810725 613182
968285 178977
14757 180412
347583 194934
334313 330761
556593 520601
891020 957891
44824 57950
771951 364473
581630 390835
254988 30323
939070 135066
293900 810649
703293 903557
322068 636359
647605 720562
44005 339448
754736 155788
934393 700723
399414 574586
330591 388224
409814 982952
534823 612867
574799 788433
504536 737420
682342 836917
161013 636393
987868 845734
415338 63717
261178 973886
175938 410331
309614 215761
274612 460504
678498 573623
375211 54408
379444 601403
663041 902248
749358 155351
475342 869016
977765 14959
34124 777004
420412 311704
394848 351476
219895 982978
121759 52837
458334 981420
91702 389787
407879 497828
785961 631448
110154 904103
220943 893463
501402 542209
892565 740654
712331 167798
107756 297635
318094 655727
821246 608872
816294 512169
108889 329253
147304 158176
555240 196541
943755 912713
155596 764585
794854 136453
635758 991717
926955 139088
613359 782260
303033 263161
468766 784068
987688 185141
168184 73505
37181 77718
679941 514868
28906 436103
912442 681699
406149 326910
536651 607433
313105 729106
365374 209467
969626 740701
902440 473191
41024 887677
561698 984853
305010 689526
843185 957762
591142 543660
302569 367563
1391 857537
250118 275177
621106 822557
365314 808130
730781 940609
379854 627596
279786 83335
329678 805095
312980 771537
351058 746569
979216 298224
99032 275443
228282 13367
634166 827997
283458 595158
850961 817076
239381 331317
456289 529726
907042 878880
521720 603261
748408 231445
289208 602547
636915 2716
275953 255356
167988 919831
810115 452949
260202 592993
332965 376172
90315 46548
846042 603729
248741 621085
540864 113506
380119 19409
976010 938127
907170 442183
297269 406972
744470 604343
511142 309339
367557 879785
575031 307401
567846 505227
379933 209466
516935 52189
27656 109492
55794 604496
738036 605366
994228 174559
290220 532370
922883 571036
261125 506279
451781 391583
777903 995395
464330 660206
